My 2022 dear data graph
…
# clean up variable names
my_songs <- janitor::clean_names(my_songs)

I then made a table of the most commonly played artists.

# make a table of most common artists
my_songs|>
  group_by(artist_name_s)|>
  summarize(Freq=n())|>
  arrange(desc(Freq))|>
  print(n = 20)

# A tibble: 81 × 2
   artist_name_s          Freq
   <chr>                 <int>
 1 Yo La Tengo               6
 2 9 Lazy 9                  5
 3 Nightmares On Wax         4
 4 Amon Tobin                2
 5 DJ Cam                    2
 6 DJ Shadow                 2
 7 Kid Loco                  2
 8 Little Dragon             2
 9 Stars                     2
10 The Go Find               2
11 Zero 7, José González     2
12 Akasha                    1
13 Albertine Sarges          1
14 Ambulance LTD             1
15 Ariel Pink, DāM-FunK      1
16 Atoms For Peace           1
17 Baby Mammoth              1
18 Boards of Canada          1
19 Brazilian Girls           1
20 Camera Obscura            1
# … with 61 more rows
…
